<svg width="24" height="24" viewBox="0 0 24 24" fill="none" xmlns="http://www.w3.org/2000/svg">
<path d="M15.2274 4.9C15.2274 3.8455 16.0683 3 17.117 3C18.1657 3 19.0066 3.8455 19.0066 4.9C19.0066 5.9545 18.1657 6.8 17.117 6.8C16.0683 6.8 15.2274 5.9545 15.2274 4.9ZM19.0066 21.05V16.3H20.0554C20.6978 16.3 21.1513 15.6635 20.9529 15.046L18.9688 9.0515C18.7043 8.2725 17.9862 7.75 17.1737 7.75H17.0603C16.2478 7.75 15.5203 8.2725 15.2652 9.0515L14.4526 11.5025C15.473 12.0725 16.1722 13.146 16.1722 14.4V22H18.0618C18.5815 22 19.0066 21.5725 19.0066 21.05ZM11.9205 12.025C12.7047 12.025 13.3377 11.3885 13.3377 10.6C13.3377 9.8115 12.7047 9.175 11.9205 9.175C11.1363 9.175 10.5033 9.8115 10.5033 10.6C10.5033 11.3885 11.1363 12.025 11.9205 12.025ZM5.30684 6.8C6.35558 6.8 7.19647 5.9545 7.19647 4.9C7.19647 3.8455 6.35558 3 5.30684 3C4.2581 3 3.41722 3.8455 3.41722 4.9C3.41722 5.9545 4.2581 6.8 5.30684 6.8ZM7.19647 21.05V15.35H7.66887C8.18852 15.35 8.61369 14.9225 8.61369 14.4V9.65C8.61369 8.605 7.76335 7.75 6.72406 7.75H3.88962C2.85033 7.75 2 8.605 2 9.65V14.4C2 14.9225 2.42517 15.35 2.94481 15.35H3.41722V21.05C3.41722 21.5725 3.84238 22 4.36203 22H6.25165C6.7713 22 7.19647 21.5725 7.19647 21.05ZM9.5585 14.4V17.25C9.5585 17.7725 9.98366 18.2 10.5033 18.2V21.05C10.5033 21.5725 10.9285 22 11.4481 22H12.3929C12.9126 22 13.3377 21.5725 13.3377 21.05V18.2C13.8574 18.2 14.2826 17.7725 14.2826 17.25V14.4C14.2826 13.621 13.6401 12.975 12.8653 12.975H10.9757C10.201 12.975 9.5585 13.621 9.5585 14.4Z" fill="#1D4A29"/>
</svg>
