<svg width="24" height="24" viewBox="0 0 24 24" fill="none" xmlns="http://www.w3.org/2000/svg">
<path d="M21.4834 11.7144C20.4345 11.7144 19.5193 11.1131 19.0783 10.2379L18.5506 9.12226C18.5439 9.1089 18.2165 8.37402 17.3547 8.37402C14.9363 8.37402 13.1191 15.5157 13.1191 17.059H14.7893L13.7872 18.3951C13.5667 18.689 13.6269 19.1099 13.9208 19.3304C14.2148 19.5509 14.6357 19.4907 14.8561 19.1968L16.4595 17.059H17.7956V19.0632C17.7956 19.4306 18.0963 19.7312 18.4637 19.7312C18.8312 19.7312 19.1318 19.4306 19.1318 19.0632V17.2527C19.1318 17.1057 19.1051 16.9654 19.065 16.8251L17.7956 13.0505L18.123 11.24C18.6641 12.0618 19.4925 12.6697 20.4679 12.9236V13.0505C20.4679 13.2376 20.6149 13.3846 20.802 13.3846C20.989 13.3846 21.136 13.2376 21.136 13.0505V12.7165C21.136 12.5294 21.283 12.3825 21.47 12.3825C21.6571 12.3825 21.8041 12.5294 21.8041 12.7165V19.3972C21.8041 19.5843 21.951 19.7312 22.1381 19.7312C22.3252 19.7312 22.4721 19.5843 22.4721 19.3972V12.7165C22.4721 12.1887 22.0579 11.7144 21.4834 11.7144Z" fill="#1D4A29"/>
<path d="M16.8598 6.3102C16.8197 6.43713 16.793 6.56406 16.793 6.70436C16.793 7.43924 17.3943 8.0405 18.1292 8.0405C18.864 8.0405 19.4653 7.43924 19.4653 6.70436C19.4653 5.96948 18.864 5.36822 18.1292 5.36822C17.9889 5.36822 17.8619 5.39494 17.735 5.43502C17.6348 5.2012 17.401 5.03418 17.1271 5.03418C16.7596 5.03418 16.459 5.33481 16.459 5.70225C16.459 5.97616 16.626 6.20999 16.8598 6.3102Z" fill="#1D4A29"/>
<path d="M8.12259 5.46713C8.12259 4.66021 7.47437 4 6.68209 4C5.88981 4 5.24158 4.66021 5.24158 5.46713C5.24158 6.27406 5.88981 6.93427 6.68209 6.93427C7.47437 6.93427 8.12259 6.27406 8.12259 5.46713ZM3.05921 10.9689C4.19001 10.9762 5.17676 10.3087 5.65213 9.3477L6.22113 8.12265C6.34357 7.8659 6.53804 7.64583 6.79733 7.49911C7.24388 7.23503 7.76967 7.2497 8.19462 7.47711V7.46977L11.3565 9.30369C11.8031 9.56044 12.084 10.0446 12.084 10.5728V12.436C12.084 12.8395 11.7599 13.1696 11.3637 13.1696C10.9676 13.1696 10.6435 12.8395 10.6435 12.436V10.5728L9.5631 9.94923C9.79358 10.7562 9.92323 11.5924 9.92323 12.436V16.3459L11.3637 18.3046C11.6014 18.6273 11.5366 19.0895 11.2197 19.3316C10.9028 19.5736 10.449 19.5076 10.2113 19.1848L8.74201 17.1895C8.57635 16.9621 8.47552 16.6834 8.45391 16.3973L8.32426 14.2406L7.04221 16.1039V19.0381C7.04221 19.4416 6.7181 19.7717 6.32196 19.7717C5.92582 19.7717 5.60171 19.4416 5.60171 19.0381V15.4657C5.60171 15.1649 5.69534 14.8715 5.861 14.6221L7.0134 12.9422C7.0134 12.9422 7.0134 12.9422 7.0134 12.9348C7.09263 12.0839 6.96299 11.233 6.68209 10.4407C6.09868 11.343 5.20557 12.0106 4.154 12.2893V12.3113V12.436C4.154 12.6414 3.99554 12.8028 3.79387 12.8028C3.5922 12.8028 3.44095 12.6414 3.44095 12.436V12.3187V12.0692C3.44095 11.8638 3.28249 11.7025 3.08082 11.7025C2.87915 11.7025 2.7207 11.8638 2.7207 12.0692V19.4049C2.7207 19.6103 2.56224 19.7717 2.36057 19.7717C2.1589 19.7717 2.00044 19.6103 2.00044 19.4049V12.0692C2.00044 11.4677 2.47581 10.9616 3.05921 10.9689Z" fill="#1D4A29"/>
</svg>
