<svg width="24" height="24" viewBox="0 0 24 24" fill="none" xmlns="http://www.w3.org/2000/svg">
<path d="M16.813 11.6366C15.457 11.6366 14.2738 10.8593 13.7038 9.72796L13.0215 8.28565C13.0129 8.26838 12.5897 7.31836 11.4756 7.31836C8.34914 7.31836 6 16.5508 6 18.5459H8.15914L6.86365 20.2732C6.57865 20.6532 6.65638 21.1973 7.03639 21.4823C7.41639 21.7673 7.9605 21.6896 8.2455 21.3096L10.3183 18.5459H12.0456V21.1368C12.0456 21.6118 12.4342 22.0005 12.9092 22.0005C13.3842 22.0005 13.7729 21.6118 13.7729 21.1368V18.7963C13.7729 18.6063 13.7383 18.425 13.6865 18.2436L12.0456 13.3639L12.4688 11.0234C13.1683 12.0857 14.2393 12.8717 15.5002 13.1998V13.3639C15.5002 13.6058 15.6902 13.7958 15.932 13.7958C16.1738 13.7958 16.3639 13.6058 16.3639 13.3639V12.9321C16.3639 12.6903 16.5539 12.5003 16.7957 12.5003C17.0375 12.5003 17.2275 12.6903 17.2275 12.9321V21.5687C17.2275 21.8105 17.4175 22.0005 17.6593 22.0005C17.9012 22.0005 18.0912 21.8105 18.0912 21.5687V12.9321C18.0912 12.2498 17.5557 11.6366 16.813 11.6366Z" fill="#FF8398"/>
<path d="M10.8366 4.64958C10.7847 4.81367 10.7502 4.97777 10.7502 5.15914C10.7502 6.10916 11.5275 6.88645 12.4775 6.88645C13.4275 6.88645 14.2048 6.10916 14.2048 5.15914C14.2048 4.20912 13.4275 3.43183 12.4775 3.43183C12.2961 3.43183 12.132 3.46637 11.9679 3.51819C11.8384 3.21591 11.5361 3 11.182 3C10.707 3 10.3184 3.38864 10.3184 3.86365C10.3184 4.21775 10.5343 4.52003 10.8366 4.64958Z" fill="#FF8398"/>
</svg>
