<svg width="32" height="37" viewBox="0 0 32 37" fill="none" xmlns="http://www.w3.org/2000/svg">
<path d="M4.85848 0.566406L7.4761 10.2975V14.9639H9.74448V10.2975L12.3967 0.566406H10.111L9.1601 4.99448C8.89276 6.28741 8.72277 7.20634 8.64487 7.75447H8.57571C8.46418 6.98782 8.29419 6.06203 8.06049 4.9767L7.14415 0.566406H4.85848ZM15.042 4.24046C14.2736 4.24046 13.6543 4.39491 13.1816 4.70994C12.7089 5.02316 12.3604 5.52434 12.1373 6.21087C11.916 6.89739 11.8054 7.80617 11.8054 8.93884V10.4682C11.8054 11.5881 11.9011 12.485 12.0958 13.1606C12.2906 13.8362 12.6193 14.3339 13.0813 14.6544C13.5434 14.9749 14.1792 15.1346 14.9901 15.1346C15.7797 15.1346 16.4074 14.9766 16.8677 14.6615C17.328 14.3465 17.6617 13.8524 17.8671 13.1713C18.0724 12.4902 18.1748 11.59 18.1748 10.4682V8.93884C18.1748 7.80799 18.0708 6.9026 17.8601 6.22154C17.6495 5.54229 17.3141 5.04111 16.8574 4.72061C16.4006 4.40011 15.7979 4.24046 15.042 4.24046ZM19.3747 4.44675V12.3035C19.3747 13.2759 19.5331 13.9911 19.8553 14.4481C20.1776 14.9052 20.678 15.1346 21.3561 15.1346C22.3334 15.1346 23.0701 14.6488 23.5587 13.6763H23.6072L23.8077 14.9639H25.6093V4.44675H23.3098V12.8014C23.2213 12.9963 23.0859 13.1559 22.9017 13.2816C22.7176 13.409 22.5278 13.4701 22.3277 13.4701C22.094 13.4701 21.9273 13.3716 21.8263 13.1713C21.7254 12.971 21.6742 12.6346 21.6742 12.1648V4.44675H19.3747ZM14.9901 5.86942C15.3123 5.86942 15.5404 6.04262 15.6678 6.39226C15.7953 6.74007 15.858 7.29395 15.858 8.04967V11.3254C15.858 12.103 15.7953 12.6653 15.6678 13.0077C15.5404 13.35 15.314 13.5216 14.9936 13.5234C14.6713 13.5234 14.4483 13.35 14.3262 13.0077C14.2023 12.6653 14.1429 12.103 14.1429 11.3254V8.04967C14.1429 7.29577 14.2056 6.74189 14.3331 6.39226C14.4606 6.04444 14.6785 5.86942 14.9901 5.86942ZM3.65514 16.9556C1.70765 16.9556 0.114258 18.5945 0.114258 20.5977V33.3448C0.114258 35.3479 1.70765 36.9869 3.65514 36.9869H28.4413C30.3888 36.9869 31.9822 35.3479 31.9822 33.3448V20.5977C31.9822 18.5945 30.3888 16.9556 28.4413 16.9556H3.65514ZM16.1347 20.5977H18.0054V25.2747H18.0192C18.1874 24.936 18.4286 24.6643 18.7384 24.4567C19.0483 24.2491 19.3836 24.1472 19.7412 24.1472C20.2016 24.1472 20.5615 24.2729 20.8236 24.5242C21.0856 24.7755 21.2773 25.1816 21.3941 25.7406C21.511 26.3015 21.567 27.0795 21.567 28.0738V29.4787H21.5705C21.5705 30.8026 21.4135 31.7724 21.1036 32.3952C20.7938 33.018 20.3116 33.3306 19.6548 33.3306C19.2883 33.3306 18.9564 33.2439 18.6555 33.0709C18.3545 32.898 18.1282 32.6601 17.9777 32.3596H17.9362L17.7391 33.199H16.1347V20.5977ZM4.51615 21.0458H10.2735V22.657H8.34403V33.199H6.44565V22.657H4.51615V21.0458ZM25.0733 24.1508C25.739 24.1508 26.251 24.2765 26.6086 24.5278C26.9645 24.7791 27.2155 25.1716 27.3624 25.7015C27.5076 26.2332 27.5803 26.9671 27.5803 27.9031V29.4253H24.3299V29.877C24.3299 30.447 24.3446 30.8734 24.3783 31.1575C24.4119 31.4415 24.4796 31.6506 24.5823 31.7799C24.685 31.911 24.8435 31.9755 25.0595 31.9755C25.3498 31.9755 25.5497 31.8582 25.6577 31.6269C25.7657 31.3957 25.8252 31.0119 25.834 30.471L27.5111 30.5706C27.52 30.6471 27.5249 30.7559 27.5249 30.8907C27.5249 31.712 27.3052 32.3252 26.8679 32.7295C26.4306 33.1356 25.8164 33.3377 25.018 33.3377C24.0602 33.3377 23.388 33.0267 23.002 32.4094C22.6161 31.7921 22.4246 30.8375 22.4246 29.5427V27.992C22.4246 26.659 22.6244 25.6857 23.0228 25.072C23.4211 24.4583 24.1066 24.1508 25.0733 24.1508ZM9.69261 24.3215H11.6394V30.8409C11.6394 31.2361 11.6824 31.5199 11.7673 31.6874C11.8523 31.8568 11.9909 31.9399 12.1892 31.9399C12.3574 31.9399 12.5227 31.8873 12.6768 31.7799C12.8326 31.6743 12.943 31.5383 13.0191 31.3744V24.3215H14.9659V33.199H14.9624H13.441L13.275 32.1106H13.23C12.8157 32.9338 12.1965 33.3448 11.3697 33.3448C10.7961 33.3448 10.3767 33.1511 10.1041 32.7651C9.83145 32.379 9.69261 31.7742 9.69261 30.9547V24.3215ZM25.0318 25.5023C24.8247 25.5023 24.6711 25.567 24.5719 25.6908C24.4728 25.8165 24.4067 26.0221 24.3748 26.3061C24.3412 26.5902 24.3264 27.0217 24.3264 27.6008V28.2374H25.7476V27.6008C25.7476 27.0308 25.7294 26.6011 25.6923 26.3061C25.6569 26.0111 25.5874 25.8039 25.4882 25.6837C25.3891 25.5635 25.2389 25.5023 25.0318 25.5023ZM18.8664 25.5663C18.6787 25.5663 18.507 25.6427 18.3477 25.7975C18.1884 25.9523 18.0743 26.1511 18.0088 26.3915V31.4313C18.0938 31.5861 18.2045 31.7016 18.3408 31.7799C18.4771 31.8564 18.6223 31.8972 18.7834 31.8972C18.9905 31.8972 19.1523 31.8208 19.2744 31.6661C19.3966 31.5113 19.4859 31.2514 19.5372 30.8836C19.5886 30.5176 19.6133 30.0078 19.6133 29.3613V28.2196C19.6133 27.524 19.5935 26.989 19.5511 26.612C19.5086 26.2351 19.4325 25.9631 19.3263 25.8046C19.2183 25.6462 19.0647 25.5663 18.8664 25.5663Z" fill="#1D4A29"/>
</svg>
